{
  "K": {
    "comboboxes": {
      "Combo1": {
        "geometry": {
          "height": 24,
          "width": 127,
          "x": 30,
          "y": 255
        },
        "page": 2,
        "realwidths": [
          4,
          4,
          4,
          4,
          4,
          4
        ],
        "realxs": [
          85,
          95,
          105,
          124,
          134,
          144
        ],
        "realys": [
          168,
          168,
          168,
          168,
          168,
          168
        ],
        "values": [
          "D.N.I. - Argentino",
          "L.E. - Argentino",
          "L.C. - Argentino",
          "D.N.I. - Extranjero",
          "C.I. - Extranjero",
          "Pasap. - Extranjero"
        ],
        "variable": 5
      },
      "Combo2": {
        "geometry": {
          "height": 24,
          "width": 90.0,
          "x": 320,
          "y": 125.0
        },
        "page": 2,
        "realwidths": [
          4,
          4,
          4,
          4
        ],
        "realxs": [
          107,
          116,
          125,
          134
        ],
        "realys": [
          147,
          147,
          147,
          147
        ],
        "values": [
          "Soltero",
          "Casado",
          "Viudo",
          "Divorciado"
        ],
        "variable": 6
      }
    },
    "entries": {
      "K00": {
        "geometry": {
          "height": 25,
          "width": 56,
          "x": 30,
          "y": 35
        },
        "realgeometry": {
          "page": 2,
          "realwidth": 18.0,
          "realx": 78,
          "realy": 205.0
        }
      },
      "K01": {
        "geometry": {
          "height": 25,
          "width": 56,
          "x": 100,
          "y": 35
        },
        "realgeometry": {
          "page": 2,
          "realwidth": 18.0,
          "realx": 99.0,
          "realy": 205.0
        }
      },
      "K02": {
        "geometry": {
          "height": 25,
          "width": 256,
          "x": 30,
          "y": 95
        },
        "realgeometry": {
          "page": 2,
          "realwidth": 69.0,
          "realx": 78.0,
          "realy": 198.0
        }
      },
      "K03": {
        "geometry": {
          "height": 25,
          "width": 256,
          "x": 30,
          "y": 125
        },
        "realgeometry": {
          "page": 2,
          "realwidth": 69.0,
          "realx": 78.0,
          "realy": 191.0
        }
      },
      "K04": {
        "geometry": {
          "height": 25,
          "width": 256,
          "x": 30,
          "y": 195
        },
        "realgeometry": {
          "page": 2,
          "realwidth": 69.0,
          "realx": 78.0,
          "realy": 184.0
        }
      },
      "K11": {
        "geometry": {
          "height": 25,
          "width": 146,
          "x": 30,
          "y": 305
        },
        "realgeometry": {
          "page": 2,
          "realwidth": 30.0,
          "realx": 78.0,
          "realy": 162.0
        }
      },
      "K12": {
        "geometry": {
          "height": 25,
          "width": 196,
          "x": 30,
          "y": 365
        },
        "realgeometry": {
          "page": 2,
          "realwidth": 37.0,
          "realx": 110.0,
          "realy": 162.0
        }
      },
      "K13": {
        "geometry": {
          "height": 25,
          "width": 26,
          "x": 320,
          "y": 35.0
        },
        "realgeometry": {
          "page": 2,
          "realwidth": 7.0,
          "realx": 78.0,
          "realy": 147.0
        }
      },
      "K14": {
        "geometry": {
          "height": 25,
          "width": 26,
          "x": 360,
          "y": 35.0
        },
        "realgeometry": {
          "page": 2,
          "realwidth": 7.0,
          "realx": 87.0,
          "realy": 147.0
        }
      },
      "K15": {
        "geometry": {
          "height": 25,
          "width": 26,
          "x": 400,
          "y": 35.0
        },
        "realgeometry": {
          "page": 2,
          "realwidth": 7.0,
          "realx": 96.0,
          "realy": 147.0
        }
      },
      "K20": {
        "geometry": {
          "height": 25,
          "width": 26,
          "x": 550.0,
          "y": 125.0
        },
        "realgeometry": {
          "page": 2,
          "realwidth": 6.0,
          "realx": 141.0,
          "realy": 147.0
        }
      },
      "K21": {
        "geometry": {
          "height": 25,
          "width": 256.0,
          "x": 320,
          "y": 195.0
        },
        "realgeometry": {
          "page": 2,
          "realwidth": 69.0,
          "realx": 78.0,
          "realy": 139.0
        }
      },
      "K22": {
        "geometry": {
          "height": 25,
          "width": 256.0,
          "x": 320,
          "y": 255.0
        },
        "realgeometry": {
          "page": 2,
          "realwidth": 69.0,
          "realx": 78.0,
          "realy": 132.0
        }
      },
      "K23": {
        "geometry": {
          "height": 25,
          "width": 256.0,
          "x": 320,
          "y": 305.0
        },
        "realgeometry": {
          "page": 2,
          "realwidth": 42.0,
          "realx": 78.0,
          "realy": 124.5
        }
      },
      "K24": {
        "geometry": {
          "height": 25,
          "width": 26,
          "x": 320,
          "y": 365.0
        },
        "realgeometry": {
          "page": 2,
          "realwidth": 7.0,
          "realx": 123.0,
          "realy": 124.5
        }
      },
      "K25": {
        "geometry": {
          "height": 25,
          "width": 26,
          "x": 360,
          "y": 365.0
        },
        "realgeometry": {
          "page": 2,
          "realwidth": 7.0,
          "realx": 132.0,
          "realy": 124.5
        }
      },
      "K26": {
        "geometry": {
          "height": 25,
          "width": 26,
          "x": 400,
          "y": 365.0
        },
        "realgeometry": {
          "page": 2,
          "realwidth": 7.0,
          "realx": 141.0,
          "realy": 124.5
        }
      }
    },
    "frames": [],
    "geometry": {
      "height": 455,
      "width": 610.0,
      "x": 104.0,
      "y": 30
    },
    "labels": {
      "Label01": {
        "geometry": {
          "height": 18,
          "x": 91,
          "y": 44
        },
        "text": ","
      },
      "Label02": {
        "geometry": {
          "height": 18,
          "x": 28,
          "y": 76
        },
        "text": "Apellido y nombres o denominaci\u00f3n"
      },
      "Label03": {
        "geometry": {
          "height": 18,
          "x": 28,
          "y": 176
        },
        "text": "Calle - N\u00ba - Piso - Depto"
      },
      "Label04": {
        "geometry": {
          "height": 18,
          "x": 28,
          "y": 235
        },
        "text": "Tipo de documento"
      },
      "Label05": {
        "geometry": {
          "height": 18,
          "x": 159,
          "y": 44
        },
        "text": "%"
      },
      "Label06": {
        "geometry": {
          "height": 18,
          "x": 28,
          "y": 285
        },
        "text": "N\u00famero de documento"
      },
      "Label07": {
        "geometry": {
          "height": 18,
          "x": 28,
          "y": 346.0
        },
        "text": "Autoridad o pa\u00eds que lo expidi\u00f3"
      },
      "Label08": {
        "geometry": {
          "height": 18,
          "x": 319,
          "y": 16.0
        },
        "text": "Fecha de nacimiento"
      },
      "Label09": {
        "geometry": {
          "height": 18,
          "x": 319,
          "y": 106.0
        },
        "text": "Estado civil"
      },
      "Label10": {
        "geometry": {
          "height": 18,
          "x": 490.0,
          "y": 127.0
        },
        "text": "Nupcia"
      },
      "Label11": {
        "geometry": {
          "height": 18,
          "x": 319,
          "y": 175.0
        },
        "text": "Apellido y nombre del conyuge"
      },
      "Label12": {
        "geometry": {
          "height": 18,
          "x": 319,
          "y": 235.0
        },
        "text": "Personeria otorgada por"
      },
      "Label13": {
        "geometry": {
          "height": 18,
          "x": 319,
          "y": 285.0
        },
        "text": "N\u00ba o datos de inscripci\u00f3n"
      },
      "Label14": {
        "geometry": {
          "height": 18,
          "x": 319,
          "y": 346.0
        },
        "text": "Fecha de inscripci\u00f3n"
      },
      "Label15": {
        "geometry": {
          "height": 18,
          "x": 320.0,
          "y": 65
        },
        "text": "D\u00eda"
      },
      "Label16": {
        "geometry": {
          "height": 18,
          "x": 360.0,
          "y": 65
        },
        "text": "Mes"
      },
      "Label17": {
        "geometry": {
          "height": 18,
          "x": 400.0,
          "y": 65
        },
        "text": "A\u00f1o"
      },
      "Label18": {
        "geometry": {
          "height": 18,
          "x": 320.0,
          "y": 391
        },
        "text": "D\u00eda"
      },
      "Label19": {
        "geometry": {
          "height": 18,
          "x": 360.0,
          "y": 391
        },
        "text": "Mes"
      },
      "Label20": {
        "geometry": {
          "height": 18,
          "x": 400.0,
          "y": 391
        },
        "text": "A\u00f1o"
      }
    },
    "name": "\"K\" IDENTIFICACION DEL CONDOMINO",
    "parent": "top",
    "radios": {}
  }
}
