%!PS-Adobe-3.0
%%DocumentMedia: 210x297mm 595 842 0 () ()
%%BoundingBox: 0 0 595 842
%%Pages: 1
/inch {72 mul} def
/mm {2.8346 mul} def
/ox {0 mm} def
/oy {0 mm} def
newpath
10 mm 10 mm moveto
200 mm 10 mm lineto
200 mm 287 mm lineto
10 mm 287 mm lineto
10 mm 10 mm lineto
2 setlinewidth
stroke
