%!PS-Adobe-3.0
%%DocumentMedia: 202x303mm 573 859 0 () ()
%%BoundingBox: 0 0 573 859
%%Pages: 1
/inch {72 mul} def
/mm {2.8346 mul} def
/ox {0 mm} def
/oy {0 mm} def
newpath
10 mm 10 mm moveto
193 mm 10 mm lineto
193 mm 293 mm lineto
10 mm 293 mm lineto
10 mm 10 mm lineto
0.5 setlinewidth
stroke
